{
  "separator": {
    "check": false,
    "model": "separator",
    "class": "BaseModel",
    "method_get": "get_test"
  },
  "fan_mode": {
    "check": true,
    "model": "fan",
    "class": "Fan",
    "event": "mode",
    "method_set": "command_set_mode",
    "method_get": "get_mode",
    "method_min": "min_mode",
    "method_max": "max_mode",
    "method_list": "list_mode"
  },

  "asusctl_profile": {
    "check": false,
    "model": "asusctl_profile",
    "class": "AsusctlProfile",
    "event": "profile",
    "method_set_v3.4.1": "command_set_profile",
    "method_set": "set_profile",
    "method_get": "get_profile",
    "method_min": "min_profile",
    "method_max": "max_profile",
    "method_list": "list_profile"
  },
  "asusctl_profile_turbo": {
    "check": false,
    "model": "asusctl_profile",
    "class": "AsusctlProfile",
    "event": "profile_turbo",
    "method_set": "set_profile_turbo",
    "method_get": "get_profile_turbo",
    "method_min": "min_profile_turbo",
    "method_max": "max_profile_turbo",
    "method_list": "list_profile_turbo"
  },
  "asusctl_profile_fan_preset": {
    "check": false,
    "model": "asusctl_profile",
    "class": "AsusctlProfile",
    "event": "profile_fan_preset",
    "method_set": "set_profile_fan_preset",
    "method_get": "get_profile_fan_preset",
    "method_min": "min_profile_fan_preset",
    "method_max": "max_profile_fan_preset",
    "method_list": "list_profile_fan_preset"
  },
  "asusctl_profile_fan_curve": {
    "check": false,
    "model": "asusctl_profile",
    "class": "AsusctlProfile",
    "event": "profile_fan_curve",
    "method_set": "set_profile_fan_curve",
    "method_get": "get_profile_fan_curve",
    "method_min": "min_profile",
    "method_max": "max_profile",
    "method_list": "list_profile"
  },
  "asusctl_fan_mode": {
    "model": "asusctl",
    "class": "Asusctl",
    "method_set": "command_set_fan_mode",
    "method_get": "get_fan_mode",
    "method_min": "min_fan_mode",
    "method_max": "max_fan_mode",
    "method_list": "list_fan_mode"
  },
  "asusctl_gfx_mode": {
    "check": false,
    "model": "asusctl_gfx",
    "class": "AsusctlGfx",
    "event": "gfx_mode",
    "method_set": "set_gfx_mode",
    "method_get": "get_gfx_mode",
    "method_min": "min_gfx_mode",
    "method_max": "max_gfx_mode",
    "method_list": "list_gfx_mode"
  },
  "asusctl_chg_limit": {
    "check": false,
    "model": "asusctl_charge",
    "class": "AsusctlCharge",
    "event": "chg_limit",
    "method_set": "set_chg_limit",
    "method_get": "get_chg_limit",
    "method_min": "min_chg_limit",
    "method_max": "max_chg_limit",
    "method_list": "list_chg_limit"
  },
  "asusctl_kbd_bright": {
    "check": false,
    "model": "asusctl_led",
    "class": "AsusctlLed",
    "event": "kbd_bright",
    "method_set": "set_kbd_bright",
    "method_get": "get_kbd_bright",
    "method_min": "min_kbd_bright",
    "method_max": "max_kbd_bright",
    "method_list": "list_kbd_bright"
  },

  "gnome_keyboard_brightness": {
    "check": false,
    "model": "gnome_keyboard",
    "class": "GnomeKeyboard",
    "event": "brightness",
    "method_set": "set_brightness",
    "method_get": "get_brightness",
    "method_min": "min_brightness",
    "method_max": "max_brightness",
    "method_list": "list_brightness"
  },
  "gnome_screen_brightness": {
    "check": false,
    "model": "gnome_screen",
    "class": "GnomeScreen",
    "event": "brightness",
    "method_set": "set_brightness",
    "method_get": "get_brightness",
    "method_min": "min_brightness",
    "method_max": "max_brightness",
    "method_list": "list_brightness"
  },
  "gnome_airplane_mode": {
    "check": false,
    "model": "gnome_rfkill",
    "class": "GnomeRfkill",
    "event": "airplane_mode",
    "method_set": "set_airplane_mode",
    "method_get": "get_airplane_mode",
    "method_min": "min_on_off",
    "method_max": "max_on_off",
    "method_list": "list_on_off"
  },
  "gnome_bluetooth_airplane_mode": {
    "check": false,
    "model": "gnome_rfkill",
    "class": "GnomeRfkill",
    "event": "bluetooth_airplane_mode",
    "method_set": "set_bluetooth_airplane_mode",
    "method_get": "get_bluetooth_airplane_mode",
    "method_min": "min_on_off",
    "method_max": "max_on_off",
    "method_list": "list_on_off"
  },
  "gnome_bluetooth_enabled": {
    "check": false,
    "model": "gnome_rfkill",
    "class": "GnomeRfkill",
    "event": "bluetooth_enabled",
    "method_set": "set_bluetooth_enabled",
    "method_get": "get_bluetooth_enabled",
    "method_min": "min_on_off",
    "method_max": "max_on_off",
    "method_list": "list_on_off"
  },

  "kde_keyboard_brightness": {
    "check": false,
    "model": "kde_keyboard",
    "class": "KdeKeyboard",
    "event": "brightness",
    "method_set": "set_brightness",
    "method_get": "get_brightness",
    "method_min": "min_brightness",
    "method_max": "max_brightness",
    "method_list": "list_brightness"
  },
  "kde_screen_brightness": {
    "check": false,
    "model": "kde_screen",
    "class": "KdeScreen",
    "event": "brightness",
    "method_set": "set_brightness",
    "method_get": "get_brightness",
    "method_min": "min_brightness",
    "method_max": "max_brightness",
    "method_list": "list_brightness"
  },


  "keyboard_brightness": {
    "check": false,
    "model": "keyboard",
    "class": "Kbd",
    "event": "brightness",
    "method_set": "set_brightness",
    "method_get": "get_brightness",
    "method_min": "min_brightness",
    "method_max": "max_brightness",
    "method_list": "list_brightness"
  },

  "bluetooth_on": {
    "check": true,
    "model": "bluetooth",
    "class": "Bluetooth",
    "event": "powered",
    "method_set": "set_powered",
    "method_get": "get_powered",
    "method_min": "min_powered",
    "method_max": "max_powered",
    "method_list": "list_powered"
  },

  "nm_wireless_enabled": {
    "check": false,
    "model": "nm",
    "class": "NetworkManager",
    "event": "wireless_enabled",
    "method_set": "set_wireless_enabled",
    "method_get": "get_wireless_enabled",
    "method_min": "min_enabled",
    "method_max": "max_enabled",
    "method_list": "list_enabled"
  },
  "nm_wireless_power_save": {
    "check": true,
    "model": "nm",
    "class": "NetworkManager",
    "event": "wireless_power_save",
    "method_set": "set_wireless_power_save",
    "method_get": "get_wireless_power_save",
    "method_min": "min_wireless_power_save",
    "method_max": "max_wireless_power_save",
    "method_list": "list_wireless_power_save"
  },
  "wifi_power_save": {
    "check": true,
    "model": "wifi",
    "class": "Wifi",
    "event": "power_save",
    "method_set": "command_set_power_save",
    "method_get": "get_power_save",
    "method_min": "min_power_save",
    "method_max": "max_power_save",
    "method_list": "list_power_save"
  },

  "sound_master_on": {
    "check": true,
    "model": "sound",
    "class": "Sound",
    "event": "master_on",
    "method_set": "command_set_master_on",
    "method_get": "get_master_on",
    "method_min": "min_master_on",
    "method_max": "max_master_on",
    "method_list": "list_master_on"
  },
  "sound_master_volume": {
    "check": true,
    "model": "sound",
    "class": "Sound",
    "event": "master_volume",
    "method_set": "command_set_master_volume",
    "method_get": "get_master_volume",
    "method_min": "min_master_volume",
    "method_max": "max_master_volume",
    "method_list": "list_master_volume"
  },
  "sound_capture_on": {
    "check": true,
    "model": "sound",
    "class": "Sound",
    "event": "capture_on",
    "method_set": "command_set_capture_on",
    "method_get": "get_capture_on",
    "method_min": "min_capture_on",
    "method_max": "max_capture_on",
    "method_list": "list_capture_on"
  },
  "sound_capture_volume": {
    "check": true,
    "model": "sound",
    "class": "Sound",
    "event": "capture_volume",
    "method_set": "command_set_capture_volume",
    "method_get": "get_capture_volume",
    "method_min": "min_capture_volume",
    "method_max": "max_capture_volume",
    "method_list": "list_capture_volume"
  }
}