<?xml version="1.0" encoding="UTF-8" standalone="no"?>
<!-- Svg Vector Icons : http://www.onlinewebfonts.com/icon -->
<svg version="1.1" xmlns="http://www.w3.org/2000/svg"
     viewBox="0 0 1000 1000" width="64" height="64" fill="#888">
    <g transform="translate(0.000000,511.000000) scale(0.100000,-0.100000)">
        <path d="M4848.3,4001c-95.7-42-193.7-161-210-254.3c-7-42-11.7-660.3-7-1374.3c7-1269.3,7-1299.7,56-1362.7c91-123.7,165.7-161,312.7-161c147,0,221.7,37.3,312.7,161c49,63,49,86.3,49,1425.7s0,1362.7-49,1425.7c-25.7,35-74.7,86.3-107.3,109.7C5128.3,4029,4941.7,4045.3,4848.3,4001z"/>
        <path d="M2246.7,3375.7c-133-67.7-217-217-203-357c7-72.3,170.3-375.7,662.7-1225c735-1274,714-1248.3,959-1229.7c149.3,11.7,231,65.3,303.3,205.3c42,79.3,51.3,123.7,39.7,196c-21,135.3-1274,2303-1376.7,2380C2522,3431.7,2377.3,3443.3,2246.7,3375.7z"/>
        <path d="M7461.7,3401.3c-39.7-9.3-98-49-133-84c-109.7-116.7-1323-2249.3-1337-2352c-11.7-72.3-2.3-116.7,39.7-196c72.3-140,154-193.7,303.3-205.3c245-18.7,224-44.3,959,1229.7c716.3,1239,714,1236.7,618.3,1423.3C7825.7,3382.7,7648.3,3457.3,7461.7,3401.3z"/>
        <path d="M4589.3-390.3C4083-474.3,3558-756.6,3212.7-1130c-371-399-611.3-942.7-653.3-1479.3L2543-2803h-800.3c-497,0-847-9.3-924-25.7c-168-35-375.7-149.3-476-261.3C205-3241.6,100-3521.6,100-3738.6v-67.7h4900h4900v67.7c0,217-105,497-242.7,648.7c-100.3,112-308,226.3-476,261.3c-77,16.3-427,25.7-921.7,25.7h-800.3l-25.7,254.3C7284.3-1148.7,5977.7-157,4589.3-390.3z"/>
    </g>
</svg>
